<?xml version="1.0" encoding="UTF-8" standalone="no"?>
<!-- Created with Inkscape (http://www.inkscape.org/) -->

<svg
   width="65.372543mm"
   height="57.517891mm"
   viewBox="0 0 65.372544 57.517891"
   version="1.1"
   id="svg21628"
   inkscape:version="1.1.2 (0a00cf5339, 2022-02-04)"
   sodipodi:docname="pmos-splash-logo2.svg"
   xmlns:inkscape="http://www.inkscape.org/namespaces/inkscape"
   xmlns:sodipodi="http://sodipodi.sourceforge.net/DTD/sodipodi-0.dtd"
   xmlns="http://www.w3.org/2000/svg"
   xmlns:svg="http://www.w3.org/2000/svg">
  <sodipodi:namedview
     id="namedview21630"
     pagecolor="#000000"
     bordercolor="#666666"
     borderopacity="1.0"
     inkscape:pageshadow="2"
     inkscape:pageopacity="0"
     inkscape:pagecheckerboard="0"
     inkscape:document-units="mm"
     showgrid="false"
     fit-margin-top="0"
     fit-margin-left="0"
     fit-margin-right="0"
     fit-margin-bottom="0"
     inkscape:zoom="1.5411756"
     inkscape:cx="63.912248"
     inkscape:cy="71.698512"
     inkscape:window-width="1916"
     inkscape:window-height="1034"
     inkscape:window-x="2"
     inkscape:window-y="20"
     inkscape:window-maximized="1"
     inkscape:current-layer="layer1" />
  <defs
     id="defs21625" />
  <g
     inkscape:label="Layer 1"
     inkscape:groupmode="layer"
     id="layer1"
     transform="translate(-46.887621,-53.31662)">
    <path
       style="display:inline;fill:none;stroke:#009900;stroke-width:0.452819px;stroke-linecap:butt;stroke-linejoin:miter;stroke-opacity:0.988235"
       d="m 76.945721,61.987337 c 2.237085,0.621391 8.682654,-3.823519 3.868459,-0.64996 -1.640535,1.766395 -5.472547,4.900278 -5.863853,5.770189 3.287947,-0.956841 6.065174,-3.243558 9.462172,-3.963146 2.010663,-1.081178 -3.31146,1.786606 -4.308023,2.57686 -2.036606,1.660159 -7.607852,4.800526 -7.286782,6.139498 4.187559,-1.146615 7.828806,-3.55104 11.713677,-5.363965 0.499606,1.190717 -5.205513,3.260389 -6.972131,4.867505 -1.689709,1.058593 -4.885245,3.252979 -1.018483,1.923325 2.911995,-0.301016 8.602984,-4.313355 9.599953,-3.794081 -2.469633,1.804148 -7.09739,5.378141 -8.359592,5.631823 3.824467,-1.150452 7.299484,-3.397663 11.209677,-4.221448 -1.55162,2.184682 -6.735938,3.70379 -6.862426,5.278749 3.083949,-0.14492 5.61472,-2.841869 8.575858,-2.858746 -0.986307,3.328932 -7.897432,5.730067 -7.362454,7.849224 3.263393,-0.03634 6.991451,-3.93203 9.162354,-3.66163 -0.922665,2.943092 -6.635051,6.048996 -6.182156,7.657369 2.046691,-0.865134 6.174088,-3.89983 6.945518,-3.235388 -0.886568,2.445218 -6.701759,5.966238 -5.884575,6.912616 3.44499,-1.910703 6.747956,-4.036632 9.567764,-6.812976 -1.159462,4.506062 -6.479893,6.290219 -7.949013,10.450465 3.56631,-1.581036 6.49921,-6.307305 9.261586,-7.54152 -0.09928,1.584181 -1.190326,2.896336 -1.8782,4.26805"
       id="path110210" />
    <path
       style="display:inline;fill:none;stroke:#009900;stroke-width:0.452819px;stroke-linecap:butt;stroke-linejoin:miter;stroke-opacity:0.988235"
       d="m 75.806152,102.67765 c 1.756528,-1.51507 4.887818,-3.519135 2.730352,0.2833 -3.214257,5.90119 7.655516,-4.037089 3.680098,-0.22898 -1.918627,1.78511 -5.252061,4.40705 -5.889816,6.15781 4.546652,-1.3384 7.882597,-4.92513 11.342887,-7.73368 -0.866859,3.57428 -6.934335,6.12076 -7.527328,8.0087 3.322568,-1.15603 5.675675,-3.74438 7.855524,-6.32609 3.788123,-2.6586 -1.258642,3.17938 -2.255707,4.57069 -1.412379,1.73362 -3.957914,4.25312 -0.596373,1.89705 3.526004,-2.30045 6.043467,-5.77766 9.083183,-8.6531 1.110865,-1.486696 5.34378,-6.00606 5.165296,-4.642178 -3.02015,4.240888 -5.919227,8.972508 -9.948761,12.222768 -3.166117,3.34486 2.635507,-0.96358 3.335152,-2.53541 2.559689,-2.8203 5.852695,-5.05544 8.570531,-7.543593 -2.214558,3.261333 -6.288618,9.347783 -7.175549,10.964333 3.140381,-2.37397 5.625362,-5.55793 8.288979,-8.26744 0.0147,2.75039 -3.891385,7.15758 -3.793277,8.15006 2.288087,-1.71101 6.246987,-6.05952 6.494127,-7.06302 -0.81617,2.35922 -4.09068,7.71523 -3.43963,8.00264 1.69808,-1.009 4.39069,-5.63498 5.47573,-4.91563 -0.99727,1.4842 -2.54775,5.34816 -0.20111,2.00077 2.97337,-2.54441 -1.30169,5.45933 2.94547,1.00178"
       id="path110212" />
    <path
       style="display:inline;fill:none;stroke:#009900;stroke-width:0.452819px;stroke-linecap:butt;stroke-linejoin:miter;stroke-opacity:0.988235"
       d="m 50.151625,109.25415 c 5.083,-5.62737 9.928039,-11.554354 13.37179,-18.344713 1.347973,-2.068049 5.009029,-8.198272 4.241609,-8.270742 -2.852104,4.827184 -6.591237,9.254516 -8.187386,14.711017 -0.716502,2.059955 -5.250772,6.368638 -3.043278,1.704426 1.605223,-3.037347 4.888785,-4.637513 6.622273,-7.615187 1.332109,-1.130283 4.895339,-6.035798 0.969083,-3.196541 -1.322624,1.263657 -5.948271,5.06157 -3.627035,0.884085 2.3956,-3.036147 5.214118,-5.153065 6.282783,-9.078908 1.461291,-2.563438 -0.984757,3.809435 -2.080518,4.714322 -0.942183,1.33344 -2.182078,4.059636 0.204657,1.644838 2.816091,-1.09655 6.272403,-4.271052 8.897449,-3.322563 -2.677157,3.725665 -7.589482,5.534434 -9.487473,9.871458 2.273296,-2.208244 6.361675,-6.173056 8.239915,-6.451987 -1.947887,3.495064 -5.38288,5.85764 -8.079635,8.75034 -1.531348,1.695678 -6.880319,4.885735 -1.870054,2.554534 2.054459,-0.699175 6.432621,-5.265673 6.182907,-4.490068 -3.335723,3.651859 -6.322234,7.682629 -9.943062,11.024399 -1.481069,1.27017 -6.705678,6.75006 -3.308827,2.50511 1.969429,-2.80398 5.211054,-8.053517 8.044115,-8.030406 -1.837778,4.026636 -3.545821,8.273226 -7.334061,10.861946 2.718178,-2.41739 6.533075,-6.12913 9.900861,-8.56152 -1.580771,2.74957 -6.073263,6.4002 -6.531498,8.01257 2.029236,-0.33174 5.422095,-5.47456 5.330754,-4.62795 -1.365563,1.67595 -5.017476,5.64714 -5.004364,5.86267 2.622228,-2.25577 4.599189,-6.47301 7.679229,-7.38271 -1.36747,2.25001 -4.307642,4.58058 -4.898253,6.70445 1.912732,-1.13854 3.536338,-2.82627 5.004034,-4.49755"
       id="path110214" />
    <path
       style="display:inline;fill:none;stroke:#009900;stroke-width:0.452819px;stroke-linecap:butt;stroke-linejoin:miter;stroke-opacity:0.988235"
       d="m 78.366115,60.011144 c 1.698262,-0.08891 4.087633,-2.063616 1.595889,0.433428 -1.172064,1.422739 -4.757182,5.099345 -1.121269,2.388062 1.725583,-1.341284 4.276049,-1.754597 1.374226,0.0977 -1.467986,1.774292 -5.149702,3.377245 -5.724054,4.75406 3.327135,0.180388 7.693754,-5.247556 8.894441,-4.988806 -2.123897,3.857297 -6.305108,5.483681 -9.223717,8.458266 0.370993,0.304133 4.727556,-3.452257 6.857368,-4.367045 2.096194,-0.906097 4.705558,-2.983033 1.73044,-0.258921 -2.347449,2.207686 -6.367592,5.0437 -7.817212,6.522091 3.672087,-1.227103 9.485769,-5.456157 11.084086,-6.159392 -3.19546,2.564635 -5.693231,6.129682 -9.50572,7.815631 3.208564,-1.45951 9.145856,-5.585237 10.605255,-5.377305 -1.249212,2.427195 -5.477207,5.077691 -6.072788,6.350007 2.833953,-1.290874 5.66869,-4.081634 8.48066,-4.462228 -1.674667,2.435477 -5.411056,5.121696 -5.785381,7.428348 2.472147,-0.826097 5.185504,-3.724352 6.842657,-4.380868 -1.385451,2.507306 -6.110769,6.211689 -6.172807,7.304306 2.403951,-0.90539 6.662127,-4.621981 7.425262,-4.4791 -1.218597,2.369864 -5.420258,5.826225 -4.963981,7.350498 2.514233,-0.14458 5.727927,-5.497008 6.41138,-4.188436 -0.695028,2.63872 -4.76296,5.32684 -4.333636,7.370195 2.252708,-0.553794 5.481468,-4.739485 6.195958,-4.39664 -1.175831,2.385543 -4.952377,4.775354 -5.216285,6.584639 2.363906,-0.871624 5.128725,-4.148516 6.650874,-4.542587 -1.346711,1.953853 -4.928194,5.442357 -5.605871,5.748823 1.095415,0.25486 8.360727,-7.078484 6.287761,-2.950552"
       id="path110378" />
    <path
       style="display:inline;fill:none;stroke:#009900;stroke-width:0.452819px;stroke-linecap:butt;stroke-linejoin:miter;stroke-opacity:0.988235"
       d="m 75.635285,101.47617 c -0.788132,3.13229 5.057149,-2.706779 1.909996,0.72298 -3.489538,4.14344 3.030491,0.11441 4.491636,-0.79778 -1.266828,1.3451 -5.62575,3.70749 -4.470736,4.89877 3.081138,-0.60439 6.853656,-4.43615 8.418877,-5.00624 -2.640643,3.1026 -6.216052,5.09886 -9.445751,7.45711 -0.973313,1.91272 4.005809,-1.84865 4.868288,-2.38146 2.501647,-1.48105 4.311109,-4.62305 6.959535,-5.48181 -2.478229,2.34574 -7.705189,7.97411 -8.822387,8.4609 3.631196,-2.14899 6.546079,-5.22718 9.494774,-8.14597 1.74711,-0.69596 -2.504483,3.43266 -2.909348,4.44303 -1.515586,1.27721 -4.717304,5.36383 -0.835727,2.48657 3.170772,-1.80499 4.254367,-5.86628 7.296506,-7.6427 -1.744338,3.28848 -4.075274,6.2136 -6.363817,9.14525 3.2422,-2.66295 5.106053,-6.50919 7.583942,-9.78754 1.451742,-0.297763 -1.807877,4.89293 -3.180449,6.2811 -1.110652,0.99171 -3.409443,4.43696 -0.781195,1.66135 3.711974,-3.18979 5.107931,-7.983041 7.549047,-12.032041 1.939383,-4.487393 -3.824084,7.761641 -0.153686,3.340946 1.196977,-1.49214 5.92847,-5.686169 3.01359,-1.613098 -1.275071,1.301413 -4.458511,5.582793 -0.61072,2.579203 1.35128,-1.288015 5.01704,-3.563672 1.99949,-0.456266 -2.563805,3.282696 -5.669266,6.113516 -8.469575,9.152406 0.313846,-2.19728 3.525738,-6.67798 3.823668,-6.94635 -0.914976,3.32706 -5.476893,5.39544 -5.349777,7.58189 4.299613,-0.90676 6.905665,-5.2402 9.549844,-8.47887 1.00618,-1.710082 4.02304,-3.355962 1.49463,-0.60602 -1.19684,3.09262 -5.42431,6.47243 -5.234831,9.09815 2.795351,-1.31348 6.486161,-6.18868 7.560331,-6.73644 -1.434,1.74772 -4.15267,5.43156 -3.99426,6.35635 1.55774,-1.03857 5.308,-6.29059 4.84244,-4.91765 -1.20601,1.52949 -5.70533,7.88161 -1.735,4.03595 1.01001,-1.3567 4.92925,-5.06434 2.20401,-1.31014 -1.28955,1.18053 -2.51232,4.43715 0.28679,1.93651 2.00936,-1.73749 1.43484,-1.81171 1.53397,0.0559 1.73841,-2.71251 0.69306,0.76043 2.51105,0.8594"
       id="path110526" />
    <path
       style="display:inline;fill:none;stroke:#009900;stroke-width:0.452819px;stroke-linecap:butt;stroke-linejoin:miter;stroke-opacity:0.988235"
       d="m 73.191026,82.933157 c 0.294472,3.83101 -2.08135,-2.243791 -1.415525,1.384512 0.210032,1.838109 0.03119,3.326739 -0.582627,0.358961 -0.09489,-6.478209 -0.793114,8.405066 -0.493048,2.064889 0.322786,-1.867664 -1.120675,-6.096359 -0.739517,-1.880898 0.299651,2.325851 0.502359,7.645217 -0.0055,2.594518 0.0795,-2.005943 -0.849239,-6.147221 -1.588587,-6.641474 0.006,2.703596 1.516237,8.692561 1.145266,9.106267 -1.108193,-3.241636 -2.310535,-8.36262 -2.573256,-10.592459 0.07653,3.562197 0.09436,7.271587 1.49415,10.632105 1.483286,3.106634 -2.196351,-2.857674 -2.63429,-4.20531 -1.618397,-1.596426 -0.0057,-6.252298 0.549573,-1.886657 0.311489,2.810449 2.420034,7.352296 1.499135,9.142217 -2.314672,-2.02383 -1.870948,-7.904256 -4.311851,-8.51294 0.410156,3.629613 2.438476,7.694433 3.976172,10.433523 -1.012555,-2.269376 -5.821743,-6.891025 -5.259486,-7.216333 -0.0504,2.6251 3.975108,7.38931 2.925456,8.246503 -1.853405,-1.047338 -5.445603,-5.2128 -5.879824,-4.867137 2.494075,2.018985 4.9926,4.338803 6.227015,7.369099 -1.076238,-3.370547 -2.910566,-7.901951 -4.608314,-9.990048 2.595168,2.329887 4.017783,6.09141 4.310526,9.519447 -1.812316,0.04175 -5.911884,-2.934032 -6.075442,-5.122714 1.916078,1.098968 5.980274,4.484122 5.487045,5.331635 -1.603554,-1.450468 -6.272031,-2.628924 -6.319252,-3.10304 2.398778,3.165427 5.867041,5.271447 8.375404,8.169477 2.249248,2.74061 0.722668,1.73411 -1.007043,-0.0138 -1.785367,-3.327729 -4.685716,-7.075585 -7.720361,-7.902468 3.047133,2.749415 6.296265,5.463558 8.020821,9.287458 1.332141,2.2598 1.619336,3.50656 -0.224893,0.77812 -2.914223,-2.33896 -4.497615,-5.708301 -6.940175,-8.407217 -1.929619,-1.907606 3.298784,3.526167 4.112157,5.079997 1.610119,1.18655 3.072386,6.46119 2.845243,6.14576 -1.719684,-3.99288 -5.370221,-6.40725 -8.023519,-9.601703 -2.435425,-4.709988 1.764865,2.029373 2.126832,3.667373 1.023882,1.29222 4.900764,8.24231 1.968985,4.25629 -1.963848,-1.9598 -4.783216,-6.19462 -5.520031,-7.279834 1.591425,2.613664 4.381493,6.394044 3.73594,9.155594 -2.17025,-1.74331 -6.349256,-5.36413 -5.471084,-7.33513 0.898888,1.29565 2.615211,6.49524 3.049733,5.84964 -0.62498,-2.58069 -2.450544,-9.214099 0.168247,-3.80771 0.92215,1.73991 2.436362,7.3347 1.739847,2.33403 -0.846121,-2.15453 -1.216395,-6.13912 1.34434,-2.57802 1.284879,1.45705 2.158286,5.96074 0.830233,1.79078 -0.558504,-1.86376 -1.134169,-6.340152 -0.16082,-1.95528 2.313304,2.99734 -0.312389,8.5166 -3.532127,4.26464 -1.504492,-1.20745 -4.568588,-5.9729 -2.577651,-1.38227 1.445042,1.91247 2.343426,4.09006 -0.196555,1.21675 -2.687794,-1.58373 -1.293561,-3.57716 0.751816,-1.00218 1.983604,1.50886 3.889807,4.59851 0.258658,2.02782 -1.86056,-1.39629 -5.407769,-3.87997 -1.95212,-0.70782 3.646515,3.97559 -3.306877,-1.87452 -2.276231,-0.97081 1.945769,1.10469 3.12955,5.03786 0.248521,1.65876 -4.70787,-2.98259 3.546321,2.46058 -0.398616,1.17118 -0.9632,-0.67575 -0.574828,-0.3043 -0.374466,-0.0786 l -0.09821,-0.10926"
       id="path110594" />
    <path
       style="display:inline;fill:none;stroke:#009900;stroke-width:0.452819px;stroke-linecap:butt;stroke-linejoin:miter;stroke-opacity:0.988235"
       d="m 100.3233,94.990415 c 3.00617,4.71407 5.88779,9.516185 8.30945,14.553435 0.74073,1.57678 -3.19137,-2.60102 -3.81063,-3.98097 -1.8881,-3.13863 -5.296706,-8.369309 -6.666172,-10.032436 0.330214,4.988546 3.126062,9.379126 4.589122,14.046496 -2.40581,-2.22999 -4.342576,-5.88227 -6.389471,-8.75644 -3.677339,-1.491705 -0.176475,5.95927 0.178104,8.02344 1.264664,5.10811 -1.331849,-2.83214 -2.656108,-4.19184 -1.154032,-3.49773 -7.136557,-4.783059 -4.421288,0.29166 0.278182,2.13532 3.667594,8.78228 1.571014,3.44813 -1.640428,-1.85201 -3.285933,-7.10248 -5.402031,-6.57454 -0.576213,2.34165 0.660959,6.63385 -0.383908,7.73428 -2.865216,-1.50901 -4.498905,-7.19335 -6.366636,-7.81803 0.623471,1.35425 1.17991,3.74976 1.173171,2.36786 0.62847,1.44258 2.920511,6.16564 1.128999,6.30522 -1.836845,-2.93124 -4.581614,-5.40124 -5.095805,-8.94056 -2.087213,-1.35043 0.186056,4.46626 0.672806,5.82766 1.369188,3.23024 -0.400746,2.41364 -1.859796,0.28045"
       id="path110933" />
    <path
       style="display:inline;fill:none;stroke:#009900;stroke-width:0.452819px;stroke-linecap:butt;stroke-linejoin:miter;stroke-opacity:0.988235"
       d="m 79.945552,57.702728 c -0.65222,5.966738 3.689892,10.813411 6.912044,15.324542 2.948376,2.633152 3.897433,6.642424 6.412473,9.527113 1.202155,1.636963 4.228354,7.712831 3.458787,2.562556 -0.874793,-5.078766 -2.069434,-11.10263 -7.123006,-13.690306 -4.650332,-2.094769 -6.608383,-6.771555 -9.697922,-10.346729 -3.416598,-0.165129 1.45318,6.344624 2.403495,8.487787 4.052984,5.50338 6.844014,11.758012 10.282549,17.634569 1.267007,1.888292 -0.730797,-4.454444 -1.608213,-5.454625 -2.25811,-5.243786 -4.92905,-10.429427 -8.520539,-14.889419 -1.119839,-2.159642 -7.911254,-5.797167 -4.779024,-0.937279 3.818492,8.03661 9.130528,15.263635 13.705477,22.884738 -3.385933,-2.425463 -5.189494,-7.594563 -5.76962,-11.961611 -0.698021,-3.148828 -5.362531,-8.283002 -4.318637,-9.783414 2.812255,4.400221 4.782007,9.285777 7.398036,13.810709 0.673298,1.687418 3.644955,7.780106 2.743383,2.682578 -1.362728,-2.321892 -2.708151,-8.167732 -4.091642,-8.192172 -2.83698,3.011474 -5.89533,-3.110321 -7.943221,-4.838128 -1.036281,-2.454532 -4.461472,-5.766662 -2.536757,-1.247213 1.068552,1.477273 2.094468,6.395397 0.54341,2.508848 -0.690661,-2.089242 -2.839906,-7.935226 -1.979698,-2.535582 0.222213,1.649399 0.476284,5.660905 -0.354147,1.957822 -1.548837,-3.115797 1.611041,6.678992 -0.798085,1.834883 -1.005716,-6.145218 -0.553227,0.68571 0.01406,2.77198"
       id="path111001" />
    <polygon
       points="65,0 58,8.5 65,17 29.8,17 29.7,17.5 25.9,27.8 15,26 0,0 "
       fill="#009900"
       id="polygon17165"
       transform="matrix(-0.61135199,0.00108874,-0.00108874,-0.61135199,111.80159,109.50059)"
       style="display:inline;fill:none;stroke:#fffffe;stroke-width:0.865567;stroke-miterlimit:4;stroke-dasharray:none;stroke-opacity:1" />
    <polygon
       points="65,17 29.8,17 29.7,17.5 25.9,27.8 15,26 0,0 65,0 58,8.5 "
       fill="#009900"
       id="polygon17167"
       transform="matrix(0.30473312,-0.52999073,0.52999073,0.30473312,47.345337,109.4324)"
       style="display:inline;fill:none;stroke:#fffffe;stroke-width:0.865567;stroke-miterlimit:4;stroke-dasharray:none;stroke-opacity:1" />
    <polygon
       points="29.8,17 29.7,17.5 25.9,27.8 15,26 0,0 65,0 58,8.5 65,17 "
       fill="#009900"
       id="polygon17171"
       transform="matrix(0.30661887,0.52890198,-0.52890198,0.30661887,80.03818,53.845639)"
       style="display:inline;fill:none;stroke:#fffffe;stroke-width:0.865567;stroke-miterlimit:4;stroke-dasharray:none;stroke-opacity:1" />
  </g>
</svg>
